ECE343-Electronics_II/Labs/Lab 4/ECE 323 Part 7_1.csv

#Digilent WaveForms Oscilloscope Acquisition
#Device Name: Discovery2
#Serial Number: SN:210321A96094
#Date Time: 2019-09-18 15:17:21.934
#Sample rate: 80000Hz
#Samples: 8192
#Trigger: Source: Channel 1 Type: Edge Condition: Rising Level: 0 V Hyst.: Auto HoldOff: 0 s
#Channel 1: Range: 5 V/div Offset: 0 V
#Channel 2: Range: 5 V/div Offset: 0 V
#Math 1: Function: C1 / 21.667

Time (s),Channel 1 (V),Channel 2 (V),Math 1 (V)
-0.051200000000000002,10.168170805384792,11.92730122423222,0.46929297112589613
-0.051187499999999997,10.171861702571048,11.93103352683397,0.46946331760608517
-0.051174999999999998,10.175552599757301,11.934765829435712,0.46963366408627411
-0.0511625,10.179243496943556,11.938498132037456,0.46980401056646309
-0.051150000000000001,10.179243496943556,11.938498132037456,0.46980401056646309
-0.051137500000000002,10.182934394129811,11.942230434639203,0.46997435704665208
-0.051124999999999997,10.186625291316069,11.942230434639205,0.47014470352684118
-0.051112499999999998,10.190316188502322,11.945962737240947,0.47031505000703011
-0.0511,10.190316188502322,11.945962737240947,0.47031505000703011
-0.051087500000000001,10.190316188502322,11.949695039842695,0.47031505000703011
-0.051075000000000002,10.190316188502322,11.949695039842695,0.47031505000703011
-0.051062499999999997,10.194007085688577,11.953427342444439,0.4704853964872191
-0.051049999999999998,10.194007085688577,11.953427342444439,0.4704853964872191
-0.0510375,10.197697982874832,11.953427342444439,0.47065574296740809
-0.051025000000000001,10.197697982874832,11.953427342444439,0.47065574296740809
-0.051012500000000002,10.197697982874832,11.957159645046183,0.47065574296740809
-0.050999999999999997,10.201388880061087,11.960891947647932,0.47082608944759707
-0.050987499999999998,10.201388880061087,11.964624250249674,0.47082608944759707
-0.050974999999999999,10.201388880061087,11.964624250249674,0.47082608944759707
-0.050962500000000001,10.201388880061087,11.964624250249674,0.47082608944759707
-0.050950000000000002,10.205079777247343,11.964624250249674,0.47099643592778617
-0.050937499999999997,10.205079777247342,11.964624250249674,0.47099643592778612
-0.050924999999999998,10.201388880061087,11.964624250249674,0.47082608944759707
-0.050912499999999999,10.205079777247343,11.96089194764793,0.47099643592778617
-0.050900000000000001,10.205079777247343,11.964624250249674,0.47099643592778617
-0.050887500000000002,10.205079777247343,11.968356552851422,0.47099643592778617
-0.050874999999999997,10.208770674433598,11.964624250249674,0.47116678240797516
-0.050862499999999998,10.208770674433598,11.964624250249674,0.47116678240797516
-0.050849999999999999,10.208770674433598,11.968356552851422,0.47116678240797516
-0.050837500000000001,10.208770674433598,11.968356552851422,0.47116678240797516
-0.050825000000000002,10.208770674433598,11.964624250249674,0.47116678240797516
-0.050812499999999997,10.201388880061089,11.960891947647932,0.47082608944759713
-0.050799999999999998,10.205079777247343,11.964624250249674,0.47099643592778617
-0.050787499999999999,10.201388880061087,11.964624250249674,0.47082608944759707
-0.050775000000000001,10.205079777247343,11.964624250249674,0.47099643592778617
-0.050762500000000002,10.205079777247343,11.96089194764793,0.47099643592778617
-0.050750000000000003,10.201388880061089,11.96089194764793,0.47082608944759713
-0.050737499999999998,10.205079777247343,11.96089194764793,0.47099643592778617
-0.050724999999999999,10.201388880061087,11.957159645046183,0.47082608944759707
-0.050712500000000001,10.197697982874832,11.957159645046183,0.47065574296740809
-0.050700000000000002,10.194007085688577,11.957159645046183,0.4704853964872191
-0.050687500000000003,10.194007085688577,11.95342734244444,0.4704853964872191
-0.050674999999999998,10.190316188502322,11.949695039842695,0.47031505000703011
-0.050662499999999999,10.190316188502322,11.949695039842695,0.47031505000703011
-0.050650000000000001,10.186625291316068,11.945962737240947,0.47014470352684112
-0.050637500000000002,10.182934394129811,11.938498132037456,0.46997435704665208
-0.050625000000000003,10.175552599757305,11.934765829435714,0.46963366408627427
-0.050612499999999998,10.175552599757301,11.931033526833968,0.46963366408627411
-0.050599999999999999,10.171861702571046,11.92730122423222,0.46946331760608512
-0.050587500000000001,10.164479908198535,11.919836619028732,0.46912262464570703
-0.050575000000000002,10.157098113826025,11.912372013825241,0.46878193168532906
-0.050562500000000003,10.146025422267265,11.908639711223495,0.46827089224476226
-0.050549999999999998,10.142334525081004,11.901175106020006,0.468100545764573
-0.050537499999999999,10.134952730708495,11.893710500816514,0.46775985280419502
-0.050525,10.123880039149729,11.886245895613023,0.467248813363628
-0.050512500000000002,10.116498244777219,11.875048987807787,0.46690812040325003
-0.050500000000000003,10.105425553218458,11.860119777400811,0.46639708096268317
-0.050487499999999998,10.098043758845943,11.852655172197316,0.46605638800230498
-0.050474999999999999,10.083280170100922,11.837725961790333,0.46537500208154897
-0.0504625,10.072207478542156,11.826529053985098,0.4648639626409819
-0.050450000000000002,10.05375299261088,11.807867540976371,0.4640122302400369
-0.050437500000000003,10.042680301052121,11.796670633171141,0.46350119079947016
-0.050424999999999998,10.020534917934583,11.778009120162409,0.46247911191833585
-0.050412499999999999,10.002080432003307,11.755615304551938,0.4616273795173908
-0.0504,9.9762441516995217,11.736953791543211,0.46043495415606778
-0.050387500000000002,9.9577896657682459,11.71455997593274,0.45958322175512278
-0.050375000000000003,9.9356442826507259,11.688433857720534,0.45856114287398919
-0.050362499999999998,9.9061171051606731,11.662307739508304,0.45719837103247668
-0.050349999999999999,9.8765899276706328,11.636181621296085,0.45583559919096472
-0.0503375,9.8544445445531004,11.606323200482123,0.45481352030983058
-0.050325000000000002,9.8249173670630601,11.576464779668161,0.45345074846831862
-0.050312500000000003,9.7843174980142695,11.539141753650728,0.45157693718624031
-0.050299999999999997,9.7474085261517001,11.498086425031509,0.44987347238434944
-0.050287499999999999,9.7068086571028935,11.457031096412312,0.44799966110227041
-0.050275,9.666208788054087,11.419708070394858,0.44612584982019138
-0.050262500000000002,9.6256089190052805,11.37865274177566,0.44425203853811235
-0.050250000000000003,9.5923908443289996,11.341329715758224,0.44271892021641196
-0.050237499999999997,9.5517909752801771,11.304006689740753,0.44084510893433221
-0.050224999999999999,9.5148820034176254,11.262951361121555,0.43914164413244217
-0.0502125,9.4742821343688171,11.221896032502357,0.43726783285036308
-0.050200000000000002,9.4373731625062653,11.184573006484904,0.43556436804847298
-0.050187500000000003,9.4004641906437296,11.143517677865725,0.43386090324658372
-0.050174999999999997,9.3635552187811619,11.106194651848252,0.4321574384446929
-0.050162499999999999,9.3266462469186102,11.068871625830798,0.43045397364280286
-0.05015,9.2934281722423133,11.039013205016836,0.4289208553211018
-0.050137500000000002,9.2565192003797616,11.00542248160113,0.42721739051921176
-0.050125000000000003,9.2233011257034825,10.971831758185436,0.42568427219751148
-0.050112499999999997,9.1900830510271696,10.938241034769714,0.42415115387580971
-0.050099999999999999,9.1605558735371275,10.908382613955752,0.42278838203429764
-0.0500875,9.1384104904195969,10.878524193141789,0.4217663031531636
-0.050075000000000001,9.1088833129295548,10.848665772327827,0.42040353131165153
-0.050062500000000003,9.0756652382532579,10.822539654115609,0.41887041298995048
-0.050049999999999997,9.0461380607632176,10.792681233301646,0.41750764114843852
-0.050037499999999999,9.0166108832731755,10.755358207284193,0.4161448693069264
-0.050025,8.99077460296939,10.729232089071974,0.41495244394560343
-0.050012500000000001,8.9612474254793479,10.70310597085976,0.41358967210409137
-0.050000000000000003,8.9354111451755625,10.676979852647541,0.41239724674276834
-0.049987499999999997,8.9058839676855204,10.647121431833579,0.41103447490125627
-0.049974999999999999,8.8800476873817349,10.620995313621361,0.40984204953993325
-0.0499625,8.8542114070779476,10.594869195409146,0.40864962417861017
-0.049950000000000001,8.8246842295879073,10.565010774595184,0.40728685233709822
-0.049937500000000003,8.7914661549116104,10.535152353781221,0.40575373401539716
-0.049924999999999997,8.7619389774215684,10.501561630365511,0.40439096217388504
-0.049912499999999999,8.7361026971177829,10.471703209551549,0.40319853681256207
-0.0499,8.702884622441486,10.441844788737587,0.40166541849086101
-0.049887500000000001,8.6733574449514439,10.408254065321881,0.40030264664934895
-0.049875000000000003,8.6475211646476584,10.382127947109662,0.39911022128802592
-0.049862499999999997,8.6216848843438569,10.35600182889743,0.39791779592670223
-0.049849999999999998,8.5921577068538308,10.326143408083482,0.39655502408519083
-0.0498375,8.5626305293637888,10.296284987269519,0.39519225224367877
-0.049825000000000001,8.5404851462462581,10.277623474260793,0.39417017336254478
-0.049812500000000003,8.5146488659424726,10.251497356048578,0.39297774800122176
-0.049799999999999997,8.4851216884524163,10.221638935234598,0.39161497615970908
-0.049787499999999998,8.4555945109623885,10.19178051442065,0.39025220431819763
-0.049775,8.429758230658603,10.165654396208435,0.3890597789568746
-0.049762500000000001,8.4113037447273271,10.139528277996217,0.38820804655592961
-0.049750000000000003,8.3780856700510302,10.109669857182254,0.38667492823422855
-0.049737499999999997,8.3448675953747209,10.07981143636828,0.38514180991252689
-0.049724999999999998,8.3190313150709478,10.053685318156074,0.38394938455120448
-0.0497125,8.2968859319534172,10.027559199943859,0.38292730567007044
-0.049700000000000001,8.2673587544633751,9.9977007791298931,0.38156453382855837
-0.049687500000000002,8.2341406797870782,9.9678423583159308,0.38003141550685732
-0.049674999999999997,8.2046135022970255,9.9342516349002121,0.37866864366534475
-0.049662499999999998,8.1787772219932506,9.9081255166880062,0.37747621830402223
-0.04965,8.1529409416894651,9.8782670958740439,0.37628379294269926
-0.049637500000000001,8.1197228670131683,9.8484086750600817,0.3747506746209982
-0.049625000000000002,8.0865047923368714,9.8148179516443754,0.37321755629929715
-0.049612499999999997,8.0606685120330717,9.7886918334321447,0.37202513093797351
-0.049599999999999998,8.0311413345430438,9.7625657152199388,0.37066235909646206
-0.0495875,7.9979232598667478,9.7215103866007411,0.369129240774761
-0.049575000000000001,7.9647051851904518,9.6879196631850348,0.36759612245306
-0.049562500000000002,7.9351780077004097,9.6580612423710726,0.36623335061154794
-0.049549999999999997,7.9130326245828639,9.6319351241588418,0.36521127173041318
-0.049537499999999998,7.8798145499065821,9.6058090059466359,0.36367815340871285
-0.049525,7.850287372416541,9.5722182825309297,0.36231538156720083
-0.049512500000000001,7.8207601949264998,9.5498244669204588,0.36095260972568882
-0.049500000000000002,7.7949239146227134,9.516233743504749,0.35976018436436574
-0.049487499999999997,7.7690876343189137,9.4901076252925165,0.35856775900304211
-0.049474999999999998,7.7395604568288858,9.4602492044785684,0.35720498716153071
-0.0494625,7.7100332793388446,9.4303907836646061,0.35584221532001864
-0.049450000000000001,7.6878878962213131,9.4042646654523914,0.3548201364388846
-0.049437500000000002,7.6546698215450171,9.378138547240173,0.35328701811718355
-0.049424999999999997,7.6288335412412174,9.3482801264261965,0.35209459275585991
-0.049412499999999998,7.5993063637511886,9.3184217056122485,0.35073182091434846
-0.049399999999999999,7.5660882890748926,9.2848309821965387,0.34919870259264746
-0.049387500000000001,7.5291793172123409,9.2475079561790885,0.34749523779075742
-0.049375000000000002,7.4922703453497892,9.2101849301616348,0.34579177298886732
-0.049362499999999997,7.4553613734872206,9.1691296015424211,0.3440883081869765
-0.049349999999999998,7.4184524016246858,9.1355388781267273,0.34238484338508723
-0.049337499999999999,7.3815434297621332,9.0982158521092735,0.34068137858319714
-0.049325000000000001,7.3446344578995815,9.0571605234900758,0.33897791378130709
-0.049312500000000002,7.3077254860370298,9.0235698000743696,0.33727444897941705
-0.049299999999999997,7.2745074113607169,8.9862467740568981,0.33574133065771528
-0.049287499999999998,7.237598439498182,8.9489237480394621,0.33403786585582596
-0.049274999999999999,7.1969985704493746,8.9078684194202644,0.33216405457374693
-0.049262500000000001,7.1600895985868229,8.8705453934028107,0.33046058977185683
-0.049250000000000002,7.1194897295380164,8.8332223673853569,0.3285867784897778
-0.049237499999999997,7.0862716548616991,8.7958993413678837,0.3270536601680758
-0.049224999999999998,7.0419808886266573,8.7548440127487055,0.32500950240580867
-0.049212499999999999,7.0087628139503604,8.7137886841295078,0.32347638408410762
-0.049200000000000001,6.9718538420878087,8.680197960713798,0.32177291928221757
-0.049187500000000002,6.9386357674115127,8.6466072372980918,0.32023980096051657
-0.049175000000000003,6.9017267955489778,8.6055519086789136,0.31853633615862725
-0.049162499999999998,6.8611269265001535,8.5682288826614403,0.31666252487654745
-0.049149999999999999,6.8279088518238575,8.5346381592457305,0.31512940655484639
-0.049137500000000001,6.7946907771475606,8.5010474358300243,0.31359628823314534
-0.049125000000000002,6.7540909080987532,8.4599921072108266,0.31172247695106625
-0.049112500000000003,6.7134910390499654,8.415204475989901,0.30984866566898805
-0.049099999999999998,6.676582067187395,8.3816137525741752,0.30814520086709718
-0.049087499999999999,6.6433639925110981,8.3442907265567214,0.30661208254539613
-0.049075000000000001,6.5990732262760359,8.3032353979375237,0.30456792478312805
-0.049062500000000002,6.5584733572272294,8.26591237192007,0.30269411350104902
-0.049050000000000003,6.5215643853646945,8.2248570433008918,0.30099064869915976
-0.049037499999999998,6.4809645163158702,8.1838017146816711,0.29911683741707989
-0.049024999999999999,6.436673750080808,8.1352817808589855,0.29707267965481182
-0.049012500000000001,6.388692086659491,8.0904941496380403,0.29485817541235476
-0.049000000000000002,6.3480922176106844,8.0457065184170951,0.29298436413027573
-0.048987500000000003,6.3074923485618957,8.0046511897979169,0.29111055284819748
-0.048974999999999998,6.2632015823268148,7.9598635585769539,0.28906639508592857
-0.048962499999999999,6.2152199189054977,7.9113436247542648,0.28685189084347151
-0.04895,6.1709291526704355,7.8665559935333214,0.28480773308120344
-0.048937500000000002,6.1266383864353733,7.821768362312377,0.28276357531893537
-0.048925000000000003,6.0860385173865854,7.776980731091454,0.28088976403685717
-0.048912499999999998,6.0380568539652497,7.7321930998704902,0.27867525979439928
-0.048899999999999999,5.9900751905439318,7.683673166047801,0.27646075555194216
-0.0488875,5.9494753214951253,7.6388855348268567,0.27458694426986313
-0.048875000000000002,5.905184555260063,7.597830206207659,0.27254278650759506
-0.048862500000000003,5.8572028918387682,7.5418456671815051,0.270328282265139
-0.048849999999999998,5.8092212284174281,7.497058035960535,0.26811377802268094
-0.048837499999999999,5.7649304621823667,7.4522704047395916,0.26606962026041292
-0.048825,5.7206396959473045,7.4074827735186481,0.26402546249814485
-0.048812500000000002,5.6800398268984971,7.3626951422977038,0.26215165121606576
-0.048800000000000003,5.6320581634772022,7.3179075110767808,0.2599371469736097
-0.048787499999999998,5.5914582944283726,7.2731198798558161,0.25806333569152962
-0.048774999999999999,5.5471675281933113,7.2283322486348727,0.2560191779292616
-0.0487625,5.4954949675857385,7.1760800122104387,0.2536343272066155
-0.048750000000000002,5.4475133041644215,7.1312923809894944,0.25141982296415843
-0.048737500000000003,5.4069134351156327,7.0902370523703144,0.24954601168208024
-0.048724999999999997,5.3626226688805518,7.0417171185476075,0.2475018539198113
-0.048712499999999999,5.3146410054592348,6.9931971847249184,0.24528734967735424
-0.0487,5.262968444851662,6.9409449483004835,0.24290249895470817
-0.048687500000000002,5.2223685758028555,6.8961573170795401,0.24102868767262911
-0.048675000000000003,5.1743869123815607,6.8513696858586162,0.23881418343017305
-0.048662499999999997,5.1264052489602205,6.7991174494341617,0.23659967918771496
-0.048649999999999999,5.0747326883526487,6.7505975156114726,0.23421482846506891
-0.0486375,5.0304419221175865,6.7058098843905292,0.23217067070280084
-0.048625000000000002,4.9861511558825242,6.6610222531695849,0.2301265129405328
-0.048612500000000003,4.9381694924612294,6.6087700167451748,0.22791200869807673
-0.048599999999999997,4.8864969318536344,6.5527854777189711,0.22552715797542963
-0.048587499999999999,4.8385152684323174,6.5079978464980277,0.2233126537329726
-0.048575,4.79791539938351,6.4669425178788291,0.22143884245089351
-0.048562500000000001,4.7462428387759372,6.4146902814543942,0.21905399172824741
-0.048550000000000003,4.6982611753546424,6.3624380450299842,0.21683948748579138
-0.048537499999999997,4.6502795119333031,6.3176504138090168,0.21462498324333332
-0.048524999999999999,4.6096796428844957,6.2728627825880725,0.21275117196125423
-0.0485125,4.5580070822769239,6.2206105461636385,0.21036632123860818
-0.048500000000000001,4.5100254188556059,6.1683583097392036,0.2081518169961511
-0.048487500000000003,4.4620437554342889,6.1198383759165145,0.20593731275369404
-0.048474999999999997,4.4177529891992267,6.0787830472973168,0.20389315499142596
-0.048462499999999999,4.3660804285916548,6.0265308108728819,0.20150830426877991
-0.04845,4.314407867984082,5.9705462718467022,0.19912345354613384
-0.048437500000000001,4.266426204562765,5.922026338024013,0.19690894930367678
-0.048425000000000003,4.2184445411414471,5.8735064042013239,0.19469444506121969
-0.048412499999999997,4.1667719805338752,5.8212541677768899,0.19230959433857364
-0.048399999999999999,4.1114085227400476,5.7652696287507101,0.18975439713573855
-0.0483875,4.0634268593187297,5.7092850897245304,0.18753989289328146
-0.048375000000000001,4.0117542987111579,5.6607651559018413,0.18515504217063541
-0.048362500000000003,3.9637726352898399,5.6085129194774073,0.18294053792817833
-0.048349999999999997,3.9047182803097336,5.5525283804512036,0.18021499424515317
-0.048337499999999999,3.8530457197021843,5.5002761440267927,0.17783014352250814
-0.048325,3.8050640562808673,5.4517562102041035,0.17561563928005108
-0.048312500000000001,3.7570823928595498,5.3995039737796695,0.17340113503759402
-0.048300000000000003,3.7017189350657222,5.3435194347534898,0.17084593783475893
-0.048287499999999997,3.6500463744581282,5.2912671983290318,0.16846108711211188
-0.048274999999999998,3.6020647110368325,5.2390149619046209,0.1662465828696558
-0.0482625,3.554083047615515,5.1904950280819317,0.16403207862719874
-0.048250000000000001,3.5024104870079427,5.1382427916574978,0.16164722790455266
-0.048237500000000003,3.4507379264003704,5.0859905552330629,0.15926237718190658
-0.048224999999999997,3.4064471601652881,5.0374706214103542,0.15721821941963759
-0.048212499999999998,3.3621563939302459,4.9926829901894303,0.15517406165737047
-0.0482,3.3178656276951837,4.9478953589684869,0.15312990389510239
-0.048187500000000001,3.2735748614601219,4.8993754251457977,0.15108574613283435
-0.048175000000000003,3.2292840952250597,4.8545877939248543,0.14904158837056627
-0.048162499999999997,3.1849933289899721,4.8060678601021412,0.14699743060829704
-0.048149999999999998,3.1296298711961699,4.7538156236777303,0.14444223340546314
-0.0481375,3.0816482077748524,4.7015633872532963,0.14222772916300605
-0.048125000000000001,3.0373574415397906,4.6605080586340977,0.14018357140073801
-0.048112500000000002,2.9930666753047284,4.6082558222096628,0.13813941363846993
-0.048099999999999997,2.9377032175108755,4.556003585785203,0.1355842164356337
-0.048087499999999998,2.8823397597170732,4.5000190467590491,0.13302901923279978
-0.048075,2.8269763019232452,4.4403022051311245,0.13047382202996469
