ECE343-Electronics_II/Labs/Lab 4/ECE 323 Part 7.csv

#Digilent WaveForms Oscilloscope Acquisition
#Device Name: Discovery2
#Serial Number: SN:210321A96094
#Date Time: 2019-09-18 14:45:38.669
#Sample rate: 160000Hz
#Samples: 8192
#Trigger: Source: Channel 1 Type: Edge Condition: Rising Level: 0 V Hyst.: Auto HoldOff: 0 s
#Channel 1: Range: 5 V/div Offset: 0 V
#Math 1: Function: C1 / 21.667

Time (s),Channel 1 (V),Math 1 (V)
-0.025650000000000003,7.4073797100659196,0.34187380394452022
-0.02564375,7.4221432988109486,0.34255518986527661
-0.025637500000000001,7.4405977847422164,0.34340692226622127
-0.025631250000000001,7.4627431678597471,0.34442900114735525
-0.025625000000000002,7.4775067566047682,0.34511038706811131
-0.025618750000000003,7.4922703453497892,0.34579177298886732
-0.0256125,7.5070339340948147,0.34647315890962355
-0.025606250000000001,7.5181066256535756,0.3469841983501904
-0.025600000000000001,7.5328702143985957,0.3476655842709464
-0.025593750000000002,7.5513247003298716,0.3485173166718914
-0.025587500000000003,7.5660882890748926,0.34919870259264746
-0.02558125,7.5845427750061756,0.35005043499359279
-0.025575000000000001,7.5993063637511886,0.35073182091434846
-0.025568750000000001,7.6214517468687202,0.35175389979548249
-0.025562500000000002,7.6325244384274855,0.35226493923604951
-0.025556250000000003,7.6472880271725066,0.35294632515680557
-0.02555,7.6620516159175338,0.35362771107756186
-0.02554375,7.6768152046625477,0.35430909699831759
-0.025537500000000001,7.6915787934075688,0.35499048291907365
-0.025531250000000002,7.7063423821525889,0.3556718688398296
-0.025525000000000003,7.7284877652701205,0.35669394772096369
-0.02551875,7.7395604568288929,0.35720498716153104
-0.0255125,7.7543240455739069,0.35788637308228671
-0.025506250000000001,7.769087634318927,0.35856775900304272
-0.025500000000000002,7.7875421202502029,0.35941949140398771
-0.025493750000000003,7.7986148118089682,0.35993053084455473
-0.0254875,7.8133784005540008,0.36061191676531135
-0.02548125,7.8392146808577756,0.36180434212663382
-0.025475000000000001,7.8576691667890515,0.36265607452757886
-0.025468750000000002,7.8724327555340725,0.36333746044833487
-0.025462500000000002,7.8908872414653484,0.36418919284927992
-0.02545625,7.9093417273966313,0.36504092525022525
-0.02545,7.9241053161416444,0.36572231117098092
-0.025443750000000001,7.9425598020729202,0.36657404357192597
-0.025437500000000002,7.9573233908179413,0.36725542949268197
-0.025431250000000002,7.9757778767492171,0.36810716189362702
-0.025425000000000003,7.994232362680485,0.36895889429457163
-0.02541875,8.0126868486117679,0.36981062669551701
-0.025412500000000001,8.027450437356789,0.37049201261627307
-0.025406250000000002,8.0459049232880648,0.37134374501721806
-0.025400000000000002,8.0606685120330859,0.37202513093797412
-0.025393750000000003,8.0828138951506059,0.37304720981910772
-0.0253875,8.0975774838956376,0.37372859573986417
-0.025381250000000001,8.1123410726406568,0.37440998166062012
-0.025375000000000002,8.1307955585719327,0.37526171406156517
-0.025368750000000002,8.1492500445032086,0.37611344646251016
-0.025362500000000003,8.1713954276207303,0.37713552534364381
-0.02535625,8.1898499135520169,0.3779872577445893
-0.025350000000000001,8.2083043994832927,0.37883899014553429
-0.025343750000000002,8.2230679882283138,0.37952037606629035
-0.025337500000000002,8.237831576973333,0.3802017619870463
-0.025331250000000003,8.2525951657183469,0.38088314790780203
-0.025325,8.2710496516496299,0.38173488030874736
-0.025318750000000001,8.2895041375809058,0.38258661270969241
-0.025312500000000002,8.3079586235121816,0.3834383451106374
-0.025306250000000002,8.3264131094434575,0.38429007751158245
-0.025300000000000003,8.3411766981884714,0.38497146343233812
-0.02529375,8.3559402869334996,0.38565284935309452
-0.025287500000000001,8.3707038756785206,0.38633423527385058
-0.025281250000000002,8.3854674644235416,0.38701562119460658
-0.025275000000000002,8.4002310531685609,0.38769700711536254
-0.025268750000000003,8.4186855390998279,0.3885487395163072
-0.0252625,8.4334491278448578,0.38923012543706359
-0.025256250000000001,8.4482127165898788,0.38991151135781965
-0.025250000000000002,8.4629763053348999,0.39059289727857566
-0.025243750000000002,8.4740489968936643,0.39110393671914262
-0.025237500000000003,8.4888125856386782,0.39178532263989835
-0.02523125,8.5035761743837064,0.39246670856065474
-0.025225000000000001,8.5146488659424726,0.39297774800122176
-0.025218750000000002,8.5294124546874919,0.39365913392197771
-0.025212500000000002,8.5441760434325129,0.39434051984273377
-0.025206250000000003,8.5589396321775268,0.39502190576348944
-0.0252,8.5700123237363002,0.39553294520405685
-0.025193750000000001,8.5847759124813194,0.3962143311248128
-0.025187500000000002,8.5958486040400857,0.39672537056537982
-0.025181250000000002,8.6106121927851067,0.39740675648613588
-0.025175000000000003,8.6179939871576128,0.39774744944651369
-0.02516875,8.6364484730888922,0.39859918184745891
-0.025162500000000001,8.6475211646476584,0.39911022128802592
-0.025156250000000002,8.6622847533926794,0.39979160720878198
-0.025150000000000002,8.6733574449514439,0.40030264664934895
-0.025143750000000003,8.6844301365102048,0.40081368608991574
-0.0251375,8.6991937252552312,0.40149507201067203
-0.025131250000000001,8.7065755196277408,0.40183576497105
-0.025125000000000001,8.7213391083727618,0.40251715089180601
-0.025118750000000002,8.7397935943040377,0.40336888329275106
-0.025112500000000003,8.7508662858627986,0.40387992273331785
-0.02510625,8.7619389774215684,0.40439096217388504
-0.025100000000000001,8.7767025661665894,0.4050723480946411
-0.025093750000000001,8.7951570520978652,0.40592408049558615
-0.025087500000000002,8.8062297436566315,0.40643511993615317
-0.025081250000000003,8.8173024352153959,0.40694615937672013
-0.025075,8.832066023960417,0.40762754529747619
-0.025068750000000001,8.8431387155191832,0.40813858473804321
-0.025062500000000001,8.8542114070779476,0.40864962417861017
-0.025056250000000002,8.8652840986367138,0.40916066361917725
-0.025050000000000003,8.8837385845679897,0.41001239602012224
-0.02504375,8.8948112761267559,0.41052343546068931
-0.025037500000000001,8.9058839676855204,0.41103447490125627
-0.025031250000000001,8.9206475564305414,0.41171586082201234
-0.025025000000000002,8.928029350803051,0.41205655378239031
-0.025018750000000003,8.9427929395480721,0.41273793970314632
-0.0250125,8.9501747339205835,0.4130786326635244
-0.025006250000000001,8.9649383226656028,0.41376001858428035
-0.025000000000000001,8.9797019114106238,0.41444140450503636
-0.024993750000000002,8.9944655001556448,0.41512279042579242
-0.024987500000000003,9.0018472945281545,0.4154634833861704
-0.02498125,9.0166108832731808,0.41614486930692662
-0.024975000000000001,9.0276835748319417,0.41665590874749348
-0.024968750000000001,9.0424471635769628,0.41733729466824948
-0.024962500000000002,9.0535198551357272,0.4178483341088165
-0.024956250000000003,9.0682834438807483,0.41852972002957251
-0.02495,9.0719743410670102,0.41870006650976183
-0.024943750000000001,9.0867379298120241,0.41938145243051755
-0.024937500000000001,9.0941197241845337,0.41972214539089553
-0.024931250000000002,9.1088833129295548,0.42040353131165153
-0.024925000000000003,9.1162651073020662,0.42074422427202962
-0.02491875,9.1236469016745811,0.42108491723240782
-0.024912500000000001,9.134719593233342,0.42159595667297461
-0.024906250000000001,9.1457922847921065,0.42210699611354158
-0.024900000000000002,9.1605558735371275,0.42278838203429764
-0.024893750000000003,9.1679376679096389,0.42312907499467567
-0.0248875,9.1753194622821539,0.42346976795505387
-0.024881250000000001,9.1863921538409148,0.42398080739562072
-0.024875000000000001,9.1974648453996792,0.42449184683618768
-0.024868750000000002,9.2085375369584455,0.42500288627675475
-0.024862500000000003,9.2196102285172099,0.42551392571732172
-0.02485625,9.2306829200759815,0.42602496515788896
-0.024850000000000001,9.2417556116347424,0.42653600459845581
-0.024843750000000001,9.2528283031935068,0.42704704403902277
-0.024837500000000002,9.263900994752273,0.42755808347958979
-0.024831250000000003,9.2712827891247827,0.42789877643996777
-0.024825,9.2823554806835524,0.42840981588053501
-0.024818750000000001,9.2897372750560585,0.42875050884091281
-0.024812500000000001,9.3008099666148247,0.42926154828147983
-0.024806250000000002,9.3118826581735892,0.42977258772204679
-0.024800000000000003,9.3229553497323554,0.43028362716261387
-0.02479375,9.3340280412911252,0.43079466660318111
-0.024787500000000001,9.3414098356636313,0.43113535956355892
-0.024781250000000001,9.3524825272223975,0.43164639900412594
-0.024775000000000002,9.3635552187811619,0.4321574384446929
-0.024768750000000003,9.3672461159674185,0.432327784924882
-0.0247625,9.3783188075261883,0.43283882436544918
-0.02475625,9.3893914990849492,0.43334986380601598
-0.024750000000000001,9.3967732934574588,0.43369055676639395
-0.024743750000000002,9.4004641906437136,0.43386090324658294
-0.024737500000000003,9.4115368822024799,0.43437194268715001
-0.02473125,9.4226095737612496,0.4348829821277172
-0.024725,9.4299913681337557,0.43522367508809501
-0.024718750000000001,9.4336822653200105,0.435394021568284
-0.024712500000000002,9.4410640596925219,0.43573471452866208
-0.024706250000000003,9.4521367512512864,0.43624575396922904
-0.0247,9.4595185456238049,0.43658644692960746
-0.02469375,9.4742821343688171,0.43726783285036308
-0.024687500000000001,9.4816639287413285,0.43760852581074111
-0.024681250000000002,9.4927366203000929,0.43811956525130807
-0.024675000000000002,9.5001184146726043,0.43846025821168616
-0.02466875,9.5075002090451193,0.43880095117206436
-0.0246625,9.5185729006038802,0.43931199061263115
-0.024656250000000001,9.5296455921626446,0.43982303005319812
-0.024650000000000002,9.5407182837214108,0.44033406949376519
-0.024643750000000002,9.5481000780939205,0.44067476245414317
-0.024637500000000003,9.5628636668389344,0.44135614837489884
-0.02463125,9.5739363583977077,0.44186718781546624
-0.024625000000000001,9.5813181527702174,0.44220788077584422
-0.024618750000000002,9.5886999471427288,0.44254857373622225
-0.024612500000000002,9.5997726387014932,0.44305961317678927
-0.024606250000000003,9.603463535887748,0.44322995965697826
-0.0246,9.6145362274465143,0.44374099909754527
-0.024593750000000001,9.6219180218190257,0.44408169205792336
-0.024587500000000002,9.6329907133777901,0.44459273149849032
-0.024581250000000002,9.6440634049365563,0.44510377093905734
-0.024575000000000003,9.6551360964953155,0.44561481037962408
-0.02456875,9.6588269936815774,0.4457851568598134
-0.024562500000000001,9.6698996852403418,0.44629619630038037
-0.024556250000000002,9.6772814796128532,0.4466368892607584
-0.024550000000000002,9.6846632739853629,0.44697758222113637
-0.024543750000000003,9.6920450683578689,0.44731827518151418
-0.0245375,9.7031177599166387,0.44782931462208142
-0.024531250000000001,9.7104995542891483,0.4481700075824594
-0.024525000000000002,9.7178813486616598,0.44851070054283743
-0.024518750000000002,9.7252631430341694,0.4488513935032154
-0.024512500000000003,9.7289540402204224,0.44902173998340433
-0.02450625,9.7363358345929356,0.44936243294378247
-0.024500000000000001,9.7400267317791904,0.44953277942397146
-0.024493750000000002,9.7474085261517001,0.44987347238434944
-0.024487500000000002,9.7510994233379567,0.45004381886453854
-0.024481250000000003,9.7547903205242097,0.45021416534472747
-0.024475,9.7621721148967211,0.4505548583051055
-0.024468750000000001,9.7695539092692325,0.45089555126548353
-0.024462500000000002,9.7695539092692325,0.45089555126548353
-0.024456250000000002,9.7732448064554873,0.45106589774567252
-0.024450000000000003,9.7806266008279934,0.45140659070605033
-0.02444375,9.7843174980142518,0.45157693718623948
-0.024437500000000001,9.7916992923867632,0.45191763014661757
-0.024431250000000002,9.795390189573018,0.45208797662680655
-0.024425000000000002,9.8064628811317842,0.45259901606737357
-0.024418750000000003,9.8138446755042903,0.45293970902775138
-0.0244125,9.8212264698768053,0.45328040198812963
-0.024406250000000001,9.8212264698768053,0.45328040198812963
-0.024400000000000002,9.8286082642493149,0.45362109494850761
-0.024393750000000002,9.8322991614355697,0.4537914414286966
-0.024387500000000003,9.8359900586218227,0.45396178790888553
-0.02438125,9.8433718529943359,0.45430248086926361
-0.024375000000000001,9.8507536473668456,0.45464317382964159
-0.024368750000000002,9.8544445445531004,0.45481352030983058
-0.024362500000000002,9.8618263389256118,0.45515421327020866
-0.024356250000000003,9.8655172361118648,0.45532455975039759
-0.02435,9.8728990304843762,0.45566525271077563
-0.024343750000000001,9.8765899276706328,0.45583559919096472
-0.024337500000000001,9.8802808248568876,0.45600594567115371
-0.024331250000000002,9.8839717220431424,0.4561762921513427
-0.024325000000000003,9.8876626192293955,0.45634663863153163
-0.02431875,9.8950444136019087,0.45668733159190972
-0.024312500000000001,9.8950444136019087,0.45668733159190972
-0.024306250000000001,9.9024262079744183,0.45702802455228769
-0.024300000000000002,9.9061171051606731,0.45719837103247668
-0.024293750000000003,9.9098080023469279,0.45736871751266567
-0.0242875,9.9134988995331845,0.45753906399285477
-0.024281250000000001,9.9171897967194393,0.45770941047304375
-0.024275000000000001,9.9208806939056942,0.45787975695323274
-0.024268750000000002,9.9282624882782038,0.45822044991361072
-0.024262500000000003,9.9282624882782038,0.45822044991361072
-0.02425625,9.9356442826507152,0.45856114287398875
-0.024250000000000001,9.9356442826507152,0.45856114287398875
-0.024243750000000001,9.9467169742094796,0.45907218231455571
-0.024237500000000002,9.9504078713957362,0.45924252879474481
-0.024231250000000003,9.9540987685819911,0.4594128752749338
-0.024225,9.9540987685819928,0.45941287527493385
-0.024218750000000001,9.9577896657682459,0.45958322175512278
-0.024212500000000001,9.9614805629545007,0.45975356823531177
-0.024206250000000002,9.9577896657682459,0.45958322175512278
-0.024200000000000003,9.9651714601407555,0.45992391471550076
-0.02419375,9.9651714601407591,0.45992391471550093
-0.024187500000000001,9.9725532545132669,0.46026460767587879
-0.024181250000000001,9.9799350488857765,0.46060530063625676
-0.024175000000000002,9.9836259460720314,0.46077564711644575
-0.024168750000000003,9.9910077404445428,0.46111634007682384
-0.0241625,9.9946986376307994,0.46128668655701288
-0.024156250000000001,9.9983895348170524,0.46145703303720181
-0.024150000000000001,10.002080432003307,0.4616273795173908
-0.024143750000000002,10.002080432003307,0.4616273795173908
-0.024137500000000003,10.009462226375819,0.46196807247776883
-0.02413125,10.013153123562077,0.46213841895795804
-0.024125000000000001,10.020534917934583,0.46247911191833585
-0.024118750000000001,10.02422581512084,0.46264945839852489
-0.024112500000000002,10.02422581512084,0.46264945839852489
-0.024106250000000003,10.027916712307094,0.46281980487871388
-0.0241,10.027916712307096,0.46281980487871394
-0.024093750000000001,10.031607609493349,0.46299015135890287
-0.024087500000000001,10.035298506679604,0.46316049783909186
-0.024081250000000002,10.038989403865859,0.46333084431928084
-0.024075000000000003,10.042680301052116,0.46350119079946994
-0.02406875,10.046371198238372,0.46367153727965899
-0.024062500000000001,10.050062095424625,0.46384188375984792
-0.024056250000000001,10.050062095424625,0.46384188375984792
-0.024050000000000002,10.05375299261088,0.4640122302400369
-0.024043750000000003,10.05375299261088,0.4640122302400369
-0.0240375,10.061134786983393,0.46435292320041499
-0.024031250000000001,10.064825684169646,0.46452326968060392
-0.024025000000000001,10.068516581355901,0.46469361616079291
-0.024018750000000002,10.068516581355901,0.46469361616079291
-0.024012500000000003,10.075898375728412,0.465034309121171
-0.02400625,10.079589272914667,0.46520465560135998
-0.024,10.079589272914667,0.46520465560135998
-0.023993750000000001,10.083280170100922,0.46537500208154897
-0.023987500000000002,10.086971067287177,0.46554534856173796
-0.023981250000000003,10.086971067287177,0.46554534856173796
-0.023975,10.090661964473433,0.465715695041927
-0.02396875,10.094352861659688,0.46588604152211599
-0.023962500000000001,10.098043758845943,0.46605638800230498
-0.023956250000000002,10.098043758845943,0.46605638800230498
-0.023950000000000003,10.101734656032198,0.46622673448249397
-0.02394375,10.1017346560322,0.46622673448249402
-0.0239375,10.105425553218453,0.46639708096268295
-0.023931250000000001,10.105425553218453,0.46639708096268295
-0.023925000000000002,10.109116450404708,0.46656742744287194
-0.023918750000000003,10.112807347590964,0.46673777392306104
-0.0239125,10.120189141963474,0.46707846688343901
-0.02390625,10.120189141963474,0.46707846688343901
-0.023900000000000001,10.120189141963474,0.46707846688343901
-0.023893750000000002,10.127570936335983,0.46741915984381699
-0.023887500000000002,10.13126183352224,0.46758950632400603
-0.02388125,10.13126183352224,0.46758950632400603
-0.023875,10.13126183352224,0.46758950632400603
-0.023868750000000001,10.134952730708495,0.46775985280419502
-0.023862500000000002,10.134952730708495,0.46775985280419502
-0.023856250000000002,10.13864362789475,0.46793019928438401
-0.023850000000000003,10.142334525081003,0.46810054576457294
-0.02384375,10.142334525081004,0.468100545764573
-0.023837500000000001,10.146025422267259,0.46827089224476204
-0.023831250000000002,10.146025422267259,0.46827089224476204
-0.023825000000000002,10.146025422267259,0.46827089224476204
-0.023818750000000003,10.149716319453514,0.46844123872495103
-0.0238125,10.149716319453516,0.46844123872495108
-0.023806250000000001,10.153407216639771,0.46861158520514007
-0.023800000000000002,10.157098113826025,0.46878193168532906
-0.023793750000000002,10.157098113826025,0.46878193168532906
-0.023787500000000003,10.157098113826025,0.46878193168532906
-0.02378125,10.157098113826025,0.46878193168532906
-0.023775000000000001,10.16078901101228,0.46895227816551804
-0.023768750000000002,10.164479908198535,0.46912262464570703
-0.023762500000000002,10.164479908198535,0.46912262464570703
-0.023756250000000003,10.171861702571043,0.46946331760608495
-0.02375,10.171861702571046,0.46946331760608512
-0.023743750000000001,10.171861702571046,0.46946331760608512
-0.023737500000000002,10.171861702571046,0.46946331760608512
-0.023731250000000002,10.175552599757301,0.46963366408627411
-0.023725000000000003,10.175552599757301,0.46963366408627411
-0.02371875,10.179243496943556,0.46980401056646309
-0.023712500000000001,10.179243496943556,0.46980401056646309
-0.023706250000000002,10.179243496943556,0.46980401056646309
-0.023700000000000002,10.182934394129811,0.46997435704665208
-0.023693750000000003,10.182934394129811,0.46997435704665208
-0.0236875,10.182934394129811,0.46997435704665208
-0.023681250000000001,10.186625291316068,0.47014470352684112
-0.023675000000000002,10.186625291316068,0.47014470352684112
-0.023668750000000002,10.186625291316068,0.47014470352684112
-0.023662500000000003,10.186625291316068,0.47014470352684112
-0.02365625,10.190316188502322,0.47031505000703011
-0.023650000000000001,10.190316188502322,0.47031505000703011
-0.023643750000000002,10.194007085688577,0.4704853964872191
-0.023637500000000002,10.197697982874832,0.47065574296740809
-0.023631250000000003,10.197697982874832,0.47065574296740809
-0.023625,10.197697982874832,0.47065574296740809
-0.023618750000000001,10.194007085688577,0.4704853964872191
-0.023612500000000002,10.197697982874832,0.47065574296740809
-0.023606250000000002,10.201388880061087,0.47082608944759707
-0.023600000000000003,10.201388880061087,0.47082608944759707
-0.02359375,10.197697982874832,0.47065574296740809
-0.023587500000000001,10.201388880061087,0.47082608944759707
-0.023581250000000002,10.205079777247343,0.47099643592778617
-0.023575000000000002,10.205079777247343,0.47099643592778617
-0.023568750000000003,10.205079777247343,0.47099643592778617
-0.0235625,10.205079777247343,0.47099643592778617
-0.023556250000000001,10.205079777247343,0.47099643592778617
-0.023550000000000001,10.208770674433598,0.47116678240797516
