ECE343-Electronics_II/Labs/Lab 4/ECE 323 Part 7_2.csv

#Digilent WaveForms Oscilloscope Acquisition
#Device Name: Discovery2
#Serial Number: SN:210321A96094
#Date Time: 2019-09-18 19:33:57.381
#Sample rate: 80000Hz
#Samples: 8192
#Trigger: Source: Channel 1 Type: Edge Condition: Rising Level: 0 V Hyst.: Auto HoldOff: 0 s
#Channel 1: Range: 5 V/div Offset: 0 V
#Channel 2: Range: 5 V/div Offset: 0 V
#Math 1: Function: C1/10

Time (s),Channel 1 (V),Channel 2 (V),Math 1 (V)
-0.051193750000000003,-0.95619331398831042,2.8540735993893662,-0.095619331398831039
-0.051181249999999998,-0.94142972524328128,2.816750573371896,-0.094142972524328142
-0.051168749999999999,-0.92297523931201375,2.7794275473544601,-0.092297523931201372
-0.05115625,-0.90821165056699316,2.7421045213370068,-0.090821165056699321
-0.051143750000000002,-0.88975716463571719,2.7010491927178086,-0.088975716463571719
-0.051131250000000003,-0.87130267870444134,2.6599938640986101,-0.087130267870444131
-0.051118749999999998,-0.85284819277315704,2.6301354432846269,-0.08528481927731571
-0.051106249999999999,-0.83439370684188952,2.5853478120637039,-0.083439370684188954
-0.05109375,-0.82332101528312407,2.5442924834445053,-0.082332101528312412
-0.051081250000000002,-0.80117563216559295,2.5032371548253067,-0.080117563216559301
-0.051068750000000003,-0.7827211462343171,2.4621818262061086,-0.078272114623431713
-0.051056249999999997,-0.76057576311677944,2.4211264975868914,-0.076057576311677949
-0.051043749999999999,-0.74581217437176528,2.3800711689677114,-0.074581217437176522
-0.05103125,-0.72366679125423428,2.335283537746768,-0.072366679125423425
-0.051018750000000002,-0.70521230532295842,2.2942282091275694,-0.070521230532295837
-0.051006250000000003,-0.68675781939168246,2.2494405779066255,-0.068675781939168248
-0.050993749999999997,-0.66461243627414135,2.2083852492874065,-0.066461243627414138
-0.050981249999999999,-0.64246705315662045,2.1635976180664835,-0.064246705315662039
-0.05096875,-0.62401256722534448,2.1188099868455397,-0.062401256722534451
-0.050956250000000002,-0.60555808129406863,2.0740223556245958,-0.060555808129406863
-0.050943750000000003,-0.58341269817653763,2.0255024218019066,-0.058341269817653765
-0.050931249999999997,-0.56495821224525322,1.9807147905809426,-0.056495821224525324
-0.050918749999999999,-0.5465037263139858,1.9359271593600194,-0.054650372631398582
-0.05090625,-0.5243583431964548,1.8874072255373302,-0.052435834319645477
-0.050893750000000001,-0.50221296007892369,1.835154989112896,-0.050221296007892366
-0.050881250000000003,-0.48006757696139263,1.7903673578919521,-0.048006757696139261
-0.050868749999999997,-0.46161309103010667,1.7418474240692425,-0.046161309103010667
-0.050856249999999999,-0.43946770791258571,1.6970597928483193,-0.043946770791258569
-0.05084375,-0.4210132219813098,1.6448075564238849,-0.04210132219813098
-0.050831250000000001,-0.39886783886377875,1.5962876226011959,-0.039886783886377876
-0.050818750000000003,-0.37672245574624769,1.5514999913802521,-0.037672245574624771
-0.050806249999999997,-0.35826796981496173,1.506712360159288,-0.03582679698149617
-0.050793749999999999,-0.33612258669744077,1.4619247289383646,-0.033612258669744079
-0.05078125,-0.31766810076616486,1.4134047951156756,-0.031766810076616483
-0.050768750000000001,-0.29921361483488895,1.3686171638947318,-0.029921361483488895
-0.050756250000000003,-0.27706823171735795,1.3238295326737881,-0.027706823171735794
-0.050743750000000004,-0.25861374578609042,1.2790419014528647,-0.025861374578609042
-0.050731249999999999,-0.24015925985480616,1.2342542702319006,-0.024015925985480614
-0.05071875,-0.2180138767372751,1.1857343364092114,-0.02180138767372751
-0.050706250000000001,-0.19955939080599921,1.1409467051882678,-0.019955939080599921
-0.050693750000000003,-0.18110490487472333,1.0924267713655786,-0.018110490487472333
-0.050681250000000004,-0.16634131612970934,1.0476391401446554,-0.016634131612970934
-0.050668749999999999,-0.14419593301217157,1.0028515089236911,-0.014419593301217157
-0.05065625,-0.12574144708089569,0.95433157510100208,-0.012574144708089569
-0.050643750000000001,-0.1072869611496198,0.90954394388005833,-0.01072869611496198
-0.050631250000000003,-0.092523372404599097,0.86102401005736928,-0.00925233724045991
-0.050618750000000004,-0.077759783659585108,0.81996868143818946,-0.0077759783659585103
-0.050606249999999998,-0.062996194914557685,0.77144874761548177,-0.0062996194914557687
-0.05059375,-0.048232606169536979,0.72666111639453801,-0.0048232606169536976
-0.050581250000000001,-0.033469017424516273,0.68187348517359425,-0.0033469017424516273
-0.050568750000000003,-0.02608722305200592,0.62962124874915992,-0.0026087223052005922
-0.050556250000000004,-0.015014531493245427,0.57363670972300562,-0.0015014531493245426
-0.050543749999999998,-0.015014531493240391,0.50645526289156451,-0.0015014531493240391
-0.05053125,-0.015014531493240391,0.46539993427236614,-0.0015014531493240391
-0.050518750000000001,-0.018705428679495567,0.4318092108566583,-0.0018705428679495566
-0.050506250000000003,-0.018705428679495567,0.39075388223745988,-0.0018705428679495566
-0.050493750000000004,-0.01501453149324207,0.34969855361828006,-0.0015014531493242069
-0.050481249999999998,-0.018705428679495567,0.30491092239731765,-0.0018705428679495566
-0.05046875,-0.015014531493240391,0.26758789637986452,-0.0015014531493240391
-0.050456250000000001,-0.015014531493240391,0.23026487036241142,-0.0015014531493240391
-0.050443750000000002,-0.018705428679495567,0.18920954174321297,-0.0018705428679495566
-0.050431250000000004,-0.018705428679495567,0.15561881832752042,-0.0018705428679495566
-0.050418749999999998,-0.018705428679495567,0.12576039751354265,-0.0018705428679495566
-0.05040625,-0.015014531493240391,0.10336658190307078,-0.0015014531493240391
-0.050393750000000001,-0.015014531493240391,0.080972766292598905,-0.0015014531493240391
-0.050381250000000002,-0.015014531493240391,0.062311253283872339,-0.0015014531493240391
-0.050368750000000004,-0.015014531493240391,0.039917437673410647,-0.0015014531493240391
-0.050356249999999998,-0.015014531493240391,0.021255924664673905,-0.0015014531493240391
-0.05034375,-0.018705428679495567,-0.0011378909457979702,-0.0018705428679495566
-0.050331250000000001,-0.015014531493240391,-0.027264009158015159,-0.0015014531493240391
-0.050318750000000002,-0.018705428679495567,-0.045925522166741721,-0.0018705428679495566
-0.050306250000000004,-0.01501453149324207,-0.072051640378947027,-0.0015014531493242069
-0.050293749999999998,-0.018705428679495567,-0.094445455989430785,-0.0018705428679495566
-0.05028125,-0.015014531493240391,-0.11310696899815735,-0.0015014531493240391
-0.050268750000000001,-0.018705428679495567,-0.1317684820068839,-0.0018705428679495566
-0.050256250000000002,-0.018705428679495567,-0.15416229761735578,-0.0018705428679495566
-0.050243750000000004,-0.018705428679495567,-0.16909150802433023,-0.0018705428679495566
-0.050231249999999998,-0.015014531493240391,-0.19148532363480891,-0.0015014531493240391
-0.05021875,-0.018705428679495567,-0.20641453404179017,-0.0018705428679495566
-0.050206250000000001,-0.015014531493240391,-0.22507604705051673,-0.0015014531493240391
-0.050193750000000002,-0.018705428679495567,-0.24746986266098861,-0.0018705428679495566
-0.050181250000000004,-0.018705428679495567,-0.2698636782714503,-0.0018705428679495566
-0.050168749999999998,-0.018705428679495567,-0.29598979648367768,-0.0018705428679495566
-0.050156249999999999,-0.018705428679495567,-0.32584821729764019,-0.0018705428679495566
-0.050143750000000001,-0.018705428679495567,-0.35197433550985735,-0.0018705428679495566
-0.050131250000000002,-0.018705428679495567,-0.37810045372207457,-0.0018705428679495566
-0.050118750000000004,-0.018705428679495567,-0.39676196673079261,-0.0018705428679495566
-0.050106249999999998,-0.015014531493240391,-0.41915578234127299,-0.0015014531493240391
-0.050093749999999999,-0.018705428679495567,-0.44154959795174487,-0.0018705428679495566
-0.050081250000000001,-0.015014531493240391,-0.46394341356221674,-0.0015014531493240391
-0.050068750000000002,-0.015014531493240391,-0.48633722917268862,-0.0015014531493240391
-0.050056250000000004,-0.011323634306985214,-0.50126643957966988,-0.0011323634306985215
-0.050043749999999998,-0.015014531493240391,-0.51619564998665113,-0.0015014531493240391
-0.050031249999999999,-0.011323634306985214,-0.53485716299537767,-0.0011323634306985215
-0.050018750000000001,-0.0076327371207300376,-0.54605407080061363,-0.00076327371207300372
-0.050006250000000002,-0.0039418399344748611,-0.56098328120759489,-0.0003941839934474861
-0.049993750000000003,0.0034399544380354918,-0.56844788641108546,0.00034399544380354918
-0.049981249999999998,0.0071308516242906683,-0.58337709681806671,0.00071308516242906685
-0.049968749999999999,0.018203543183056198,-0.59457400462330268,0.0018203543183056199
-0.049956250000000001,0.018203543183056198,-0.59830630722504796,0.0018203543183056199
-0.049943750000000002,0.025585337555566551,-0.60577091242853864,0.002558533755556655
-0.049931250000000003,0.032967131928076904,-0.61323551763202921,0.0032967131928076905
-0.049918749999999998,0.040348926300587257,-0.6207001228355199,0.0040348926300587257
-0.049906249999999999,0.04773072067309761,-0.62816472803901047,0.0047730720673097608
-0.049893750000000001,0.055112515045607963,-0.63189703064075586,0.0055112515045607959
-0.049881250000000002,0.066185206604373492,-0.63562933324250115,0.006618520660437349
-0.049868750000000003,0.077257898163139022,-0.64309393844599172,0.0077257898163139022
-0.049856249999999998,0.084639692535654412,-0.64682624104773878,0.0084639692535654412
-0.049843749999999999,0.095712384094414904,-0.6505585436494824,0.0095712384094414904
-0.049831250000000001,0.10678507565318043,-0.65429084625122769,0.010678507565318043
-0.049818750000000002,0.11785776721194596,-0.66175545145471837,0.011785776721194597
-0.049806250000000003,0.12523956158445632,-0.66175545145471837,0.012523956158445631
-0.049793749999999998,0.14000315032948205,-0.66922005665820894,0.014000315032948206
-0.049781249999999999,0.15107584188824255,-0.66922005665820894,0.015107584188824255
-0.04976875,0.16583943063326326,-0.67668466186169962,0.016583943063326327
-0.049756250000000002,0.17691212219202879,-0.67668466186169962,0.017691212219202879
-0.049743750000000003,0.18798481375079432,-0.68041696446344491,0.018798481375079432
-0.049731249999999998,0.19905750530956487,-0.68414926706519019,0.019905750530956487
-0.049718749999999999,0.21013019686832538,-0.68414926706519019,0.021013019686832536
-0.04970625,0.22489378561334608,-0.68788156966693548,0.022489378561334608
-0.049693750000000002,0.23227557998585643,-0.68788156966693548,0.023227557998585644
-0.049681250000000003,0.24703916873087714,-0.69161387226868087,0.024703916873087713
-0.049668749999999998,0.25811186028964772,-0.69161387226868254,0.025811186028964771
-0.049656249999999999,0.26918455184840817,-0.69534617487042616,0.026918455184840817
-0.04964375,0.28025724340717373,-0.69907847747217144,0.028025724340717373
-0.049631250000000002,0.29502083215219443,-0.69534617487042616,0.029502083215219445
-0.049618750000000003,0.30609352371095999,-0.69907847747217144,0.030609352371096001
-0.049606249999999998,0.32085711245598741,-0.69907847747217311,0.032085711245598746
-0.049593749999999999,0.3356207012010014,-0.70281078007391673,0.033562070120100138
-0.04958125,0.3430024955735117,-0.70281078007391673,0.03430024955735117
-0.049568750000000002,0.35776608431853241,-0.70654308267566213,0.035776608431853242
-0.049556250000000003,0.36883877587729796,-0.70654308267566213,0.036883877587729798
-0.049543749999999998,0.38729326180857715,-0.71027538527740741,0.038729326180857712
-0.049531249999999999,0.39467505618108423,-0.71027538527740741,0.039467505618108426
-0.04951875,0.40943864492610493,-0.71027538527740741,0.040943864492610491
-0.049506250000000002,0.42051133648487043,-0.7140076878791527,0.042051133648487046
-0.049493750000000003,0.43527492522989114,-0.71773999048089798,0.043527492522989111
-0.049481249999999997,0.4500385139749169,-0.71773999048089632,0.04500385139749169
-0.049468749999999999,0.46111120553367735,-0.7140076878791527,0.046111120553367732
-0.04945625,0.47587479427869805,-0.71773999048089798,0.047587479427869804
-0.049443750000000002,0.49063838302371876,-0.71773999048089798,0.049063838302371876
-0.049431250000000003,0.50909286895499462,-0.72147229308264327,0.050909286895499464
-0.049418749999999997,0.52385645770002387,-0.72147229308264327,0.052385645770002383
-0.049406249999999999,0.54231094363129129,-0.72147229308264327,0.054231094363129131
-0.04939375,0.55707453237631199,-0.72147229308264327,0.055707453237631196
-0.049381250000000002,0.5718381211213327,-0.72520459568438866,0.057183812112133268
-0.049368750000000003,0.5866017098663534,-0.72893689828613395,0.05866017098663534
-0.049356249999999997,0.59767440142512551,-0.72893689828613395,0.059767440142512555
-0.049343749999999999,0.61243799017013967,-0.72893689828613395,0.061243799017013968
-0.04933125,0.63089247610141552,-0.72893689828613395,0.063089247610141549
-0.049318750000000001,0.64934696203269138,-0.73266920088787924,0.064934696203269138
-0.049306250000000003,0.66411055077771208,-0.72893689828613395,0.066411055077771203
-0.049293749999999997,0.6825650367089946,-0.73266920088787924,0.068256503670899457
-0.049281249999999999,0.69732862545400864,-0.73266920088787924,0.06973286254540087
-0.04926875,0.7157831113852845,-0.73266920088787924,0.071578311138528444
-0.049256250000000001,0.73054670013030532,-0.73640150348962452,0.073054670013030537
-0.049243750000000003,0.74900118606158117,-0.73640150348962452,0.074900118606158111
-0.049231249999999997,0.76376477480661031,-0.74013380609136825,0.076376477480661023
-0.049218749999999999,0.78221926073787773,-0.73640150348962452,0.078221926073787779
-0.04920625,0.80067374666915359,-0.74013380609136992,0.080067374666915353
-0.049193750000000001,0.81912823260042955,-0.74013380609136992,0.081912823260042955
-0.049181250000000003,0.83389182134545015,-0.74013380609136992,0.08338918213454502
-0.049168750000000004,0.85234630727671767,-0.74386610869311354,0.085234630727671776
-0.049156249999999999,0.86710989602174682,-0.7438661086931152,0.086710989602174687
-0.04914375,0.88556438195302267,-0.7438661086931152,0.088556438195302262
-0.049131250000000001,0.90032797069804338,-0.7438661086931152,0.090032797069804341
-0.049118750000000003,0.92247335381557438,-0.7438661086931152,0.092247335381557438
-0.049106250000000004,0.93723694256058854,-0.7438661086931152,0.093723694256058851
-0.049093749999999999,0.95569142849187105,-0.74759841129486049,0.095569142849187105
-0.04908125,0.97414591442314691,-0.7438661086931152,0.097414591442314694
-0.049068750000000001,0.98890950316816761,-0.75133071389660577,0.098890950316816759
-0.049056250000000003,1.0073639890994435,-0.74759841129486049,0.10073639890994435
-0.049043750000000004,1.0295093722169646,-0.75133071389660411,0.10295093722169645
-0.049031249999999998,1.0442729609619952,-0.75133071389660577,0.10442729609619952
-0.04901875,1.062727446893271,-0.75133071389660577,0.1062727446893271
-0.049006250000000001,1.0811819328245469,-0.75133071389660577,0.10811819328245469
-0.048993750000000003,1.0996364187558227,-0.75506301649835117,0.10996364187558227
-0.048981250000000004,1.1144000075008371,-0.75506301649835117,0.11144000075008371
-0.048968749999999998,1.1328544934321196,-0.75506301649835117,0.11328544934321197
-0.04895625,1.1513089793633955,-0.75506301649835117,0.11513089793633954
-0.048943750000000001,1.1697634652946713,-0.75506301649835117,0.11697634652946713
-0.048931250000000003,1.1845270540396919,-0.75879531910009645,0.1184527054039692
-0.048918750000000004,1.2029815399709594,-0.75506301649835283,0.12029815399709595
-0.048906249999999998,1.2214360259022436,-0.75879531910009645,0.12214360259022436
-0.04889375,1.2361996146472642,-0.75879531910009645,0.12361996146472642
-0.048881250000000001,1.2546541005785401,-0.75879531910009645,0.125465410057854
-0.048868750000000002,1.2694176893235611,-0.76252762170184174,0.12694176893235612
-0.048856250000000004,1.2878721752548286,-0.76252762170184174,0.12878721752548286
-0.048843749999999998,1.3063266611861128,-0.76252762170184174,0.1306326661186113
-0.04883125,1.3210902499311334,-0.75879531910009645,0.13210902499311333
-0.048818750000000001,1.335853838676154,-0.76252762170184174,0.1335853838676154
-0.048806250000000002,1.3506174274211751,-0.76252762170184174,0.13506174274211752
-0.048793750000000004,1.3690719133524425,-0.76252762170184174,0.13690719133524426
-0.048781249999999998,1.3838355020974715,-0.76252762170184174,0.13838355020974716
-0.04876875,1.3949081936562369,-0.76252762170184174,0.13949081936562369
-0.048756250000000001,1.4133626795875127,-0.76252762170184174,0.14133626795875126
-0.048743750000000002,1.4281262683325338,-0.76625992430358703,0.14281262683325338
-0.048731250000000004,1.4465807542638012,-0.76999222690533076,0.14465807542638012
-0.048718749999999998,1.4650352401950855,-0.76625992430358703,0.14650352401950856
-0.04870625,1.4834897261263613,-0.76625992430358703,0.14834897261263613
-0.048693750000000001,1.4982533148713819,-0.76625992430358703,0.1498253314871382
-0.048681250000000002,1.5167078008026578,-0.76999222690533242,0.15167078008026577
-0.048668750000000004,1.5314713895476717,-0.76999222690533242,0.15314713895476717
-0.048656249999999998,1.5499258754789542,-0.77372452950707771,0.15499258754789541
-0.048643749999999999,1.5646894642239753,-0.76999222690533242,0.15646894642239753
-0.048631250000000001,1.5831439501552511,-0.76999222690533242,0.15831439501552511
-0.048618750000000002,1.5979075389002717,-0.76999222690533242,0.15979075389002717
-0.048606250000000004,1.6126711276452856,-0.77372452950707604,0.16126711276452857
-0.048593749999999998,1.6274347163903133,-0.77372452950707771,0.16274347163903133
-0.048581249999999999,1.6421983051353339,-0.77372452950707771,0.16421983051353339
-0.048568750000000001,1.6606527910666098,-0.77372452950707771,0.16606527910666097
-0.048556250000000002,1.6754163798116304,-0.77372452950707771,0.16754163798116303
-0.048543750000000004,1.6901799685566443,-0.77745683210882133,0.16901799685566443
-0.048531249999999998,1.7086344544879268,-0.77745683210882299,0.17086344544879267
-0.048518749999999999,1.7233980432329479,-0.77372452950707771,0.17233980432329479
-0.048506250000000001,1.7418525291642237,-0.77745683210882299,0.17418525291642237
-0.048493750000000002,1.7566161179092443,-0.77745683210882299,0.17566161179092443
-0.048481250000000004,1.7713797066542649,-0.77745683210882299,0.1771379706654265
-0.048468749999999998,1.7824523982130307,-0.77745683210882299,0.17824523982130308
-0.048456249999999999,1.7972159869580513,-0.77745683210882299,0.17972159869580512
-0.048443750000000001,1.8082886785168166,-0.77745683210882299,0.18082886785168167
-0.048431250000000002,1.8230522672618377,-0.77745683210882299,0.18230522672618377
-0.048418750000000003,1.8378158560068583,-0.78118913471056828,0.18378158560068583
-0.048406249999999998,1.8525794447518789,-0.78118913471056828,0.1852579444751879
-0.048393749999999999,1.8673430334968995,-0.78118913471056828,0.18673430334968993
-0.048381250000000001,1.8857975194281753,-0.77745683210882299,0.18857975194281754
-0.048368750000000002,1.8968702109869411,-0.78118913471056828,0.18968702109869412
-0.048356250000000003,1.9079429025457064,-0.78118913471056828,0.19079429025457065
-0.048343749999999998,1.9227064912907326,-0.78118913471056828,0.19227064912907324
-0.048331249999999999,1.9337791828494928,-0.78118913471056828,0.19337791828494927
-0.048318750000000001,1.9485427715945134,-0.78118913471056828,0.19485427715945133
-0.048306250000000002,1.963306360339534,-0.78118913471056828,0.1963306360339534
-0.048293750000000003,1.978069949084555,-0.78118913471056828,0.19780699490845549
-0.048281249999999998,1.9928335378295807,-0.77745683210882466,0.19928335378295806
-0.048268749999999999,2.003906229388341,-0.78118913471056828,0.20039062293883408
-0.048256250000000001,2.0186698181333615,-0.78118913471056828,0.20186698181333615
