ECE314-Signals_And_Systems/ECE314_HW6_1d.csv

#Digilent WaveForms Oscilloscope Acquisition
#Device Name: Discovery2
#Serial Number: SN:210321A96094
#Date Time: 2018-11-14 19:45:11.803
#Sample rate: 1.5873e+06Hz
#Samples: 8192
#Trigger: Source: Channel 1 Type: Edge Condition: Falling Level: 1 V Hyst.: Auto HoldOff: 0 s
#Math 1: Function: C1 X C2

Time (s),Math 1 (V)
-0.00257992875,-0.17854686498203104
-0.0025792987500000003,0.376325904497052
-0.0025786687500000001,-0.34067483766232992
-0.00257803875,0.086061387034194886
-0.0025774087500000003,0.22026940279972551
-0.0025767787500000001,-0.39157587803196892
-0.0025761487500000004,0.3145543383394549
-0.0025755187500000002,-0.038999129752125591
-0.00257488875,-0.26432169078387413
-0.0025742587500000003,0.39863462347372258
-0.0025736287500000002,-0.28506170557226618
-0.00257299875,-0.013257599866481515
-0.0025723687500000003,0.29944409111561848
-0.0025717387500000001,-0.40291768407138689
-0.0025711087499999999,0.24765026657089892
-0.0025704787500000002,0.061149103444904408
-0.00256984875,-0.33658127266980054
-0.0025692187500000003,0.39596337024690464
-0.0025685887500000002,-0.20936482909694404
-0.00256795875,-0.11483153350654966
-0.0025673287500000003,0.36331848316419868
-0.0025666987500000001,-0.38774134597502752
-0.0025660687499999999,0.16255229374588992
-0.0025654387500000002,0.16115342745106248
-0.0025648087500000001,-0.38961637360903784
-0.0025641787500000003,0.3679119299372397
-0.0025635487500000002,-0.11762101152619286
-0.00256291875,-0.21227822918013603
-0.0025622887500000003,0.40452692829481618
-0.0025616587500000001,-0.34625073448403398
-0.00256102875,0.065580541315157045
-0.0025603987500000002,0.2549946831994358
-0.0025597687500000001,-0.41912753654481449
-0.0025591387500000003,0.31565899700413036
-0.0025585087500000002,-0.015189155094889772
-0.00255787875,-0.3003051743786469
-0.0025572487500000003,0.42206845348426264
-0.0025566187500000001,-0.28300014418819808
-0.00255598875,-0.040455398336274345
-0.0025553587500000002,0.33467339150200731
-0.0025547287500000001,-0.42416900455618556
-0.0025540987500000003,0.23965591495093086
-0.0025534687500000002,0.092064294120824966
-0.00255283875,-0.3713298720795018
-0.0025522087500000003,0.41306763901943522
-0.0025515787500000001,-0.19845777468010359
-0.00255094875,-0.14711343185034673
-0.0025503187500000002,0.39636554933519891
-0.0025496887500000001,-0.40124043254621578
-0.0025490587500000004,0.14679642533646087
-0.0025484287500000002,0.19650706413749702
-0.00254779875,-0.42074961446282277
-0.0025471687500000003,0.37613075255424155
-0.0025465387500000001,-0.098151373620165086
-0.00254590875,-0.24855937299438666
-0.0025452787500000002,0.43412456320640874
-0.0025446487500000001,-0.35144595307565574
-0.0025440187500000004,0.041320473328993745
-0.0025433887500000002,0.29105633081386478
-0.00254275875,-0.44549200377882292
-0.0025421287500000003,0.31344318283814976
-0.0025414987500000001,0.011292037908032487
-0.00254086875,-0.33569393217743809
-0.0025402387500000003,0.44459186106432841
-0.0025396087500000001,-0.2773641923672418
-0.0025389787500000004,-0.071027629206680681
-0.0025383487500000002,0.37188330600086134
-0.00253771875,-0.44174456720305572
-0.0025370887500000003,0.23057548892433483
-0.0025364587500000002,0.12445421057923793
-0.00253582875,-0.40565456720416176
-0.0025351987500000003,0.42792279217863516
-0.0025345687500000001,-0.1833357786199408
-0.0025339387499999999,-0.18242182235933149
-0.0025333087500000002,0.4283635443017268
-0.0025326787500000001,-0.41101179800511412
-0.0025320487500000003,0.12831843355497352
-0.0025314187500000002,0.23286087723965335
-0.00253078875,-0.45172348811440605
-0.0025301587500000003,0.38225715215089717
-0.0025295287500000001,-0.074545369694371547
-0.0025288987499999999,-0.28587987288611971
-0.0025282687500000002,0.4617760956228491
-0.0025276387500000001,-0.3510154492836684
-0.0025270087500000003,0.013894047548500266
-0.0025263787500000002,0.32806684454236174
-0.00252574875,-0.47080627476930059
-0.0025251187500000003,0.31003997344609135
-0.0025244887500000001,0.041830233798345294
-0.00252385875,-0.37378792586199638
-0.0025232287500000002,0.46479771561383021
-0.0025225987500000001,-0.26847532173571459
-0.0025219687500000003,-0.10361665176337428
-0.0025213387500000002,0.40677873917949436
-0.00252070875,-0.45950428795590009
-0.0025200787500000003,0.21593756970060693
-0.0025194487500000001,0.1594660172522486
-0.00251881875,-0.4409686243137616
-0.0025181887500000002,0.43904711304892308
-0.0025175587500000001,-0.16531099134373434
-0.0025169287500000003,-0.21940309825481785
-0.0025162987500000002,0.46199342468330057
-0.00251566875,-0.4182324458005533
-0.0025150387500000003,0.10523198667996803
-0.0025144087500000001,0.27006682570164237
-0.00251377875,-0.48192658165599744
-0.0025131487500000002,0.38324376844287422
-0.0025125187500000001,-0.049325442407578489
-0.0025118887500000004,-0.32439598279167936
-0.0025112587500000002,0.48746539519847287
-0.00251062875,-0.34970878840453973
-0.0025099987500000003,-0.016603609387340679
-0.0025093687500000001,0.36772672111432819
-0.00250873875,-0.49262056856033248
-0.0025081087500000003,0.30215710838816767
-0.0025074787500000001,0.07472911950134313
-0.0025068487500000004,-0.41073893469673312
-0.0025062187500000002,0.48316512223028646
-0.00250558875,-0.25634840316971241
-0.0025049587500000003,-0.13981549325848763
-0.0025043287500000001,0.44425439841203862
-0.00250369875,-0.47236527335002548
-0.0025030687500000003,0.19838056319231429
-0.0025024387500000001,0.19676979740722109
-0.0025018087499999999,-0.47521791749936582
-0.0025011787500000002,0.44828357598555091
-0.00250054875,-0.14321678149838868
-0.0024999187500000003,-0.25782079361609866
-0.0024992887500000002,0.49406113455213585
-0.00249865875,-0.42120809465218195
-0.0024980287500000003,0.079292829894447414
-0.0024973987500000001,0.30962956132387703
-0.0024967687499999999,-0.50922689802972054
-0.0024961387500000002,0.38296905336303261
-0.0024955087500000001,-0.018422106395362792
-0.0024948787500000003,-0.36406044269217586
-0.0024942487500000002,0.51276497898900819
-0.00249361875,-0.34273253436518153
-0.0024929887500000003,-0.049348352153998624
-0.0024923587500000001,0.40559954181882785
-0.00249172875,-0.51326569280308387
-0.0024910987500000002,0.29038033034422717
-0.0024904687500000001,0.10979406305272045
-0.0024898387500000003,-0.44850438922929026
-0.0024892087500000002,0.49915819506521747
-0.00248857875,-0.23880354881398963
-0.0024879487500000003,-0.17746371569603392
-0.0024873187500000001,0.47833305072028276
-0.00248668875,-0.48318113626748044
-0.0024860587500000002,0.17780020312609854
-0.0024854287500000001,0.2357045319392429
-0.0024847987500000003,-0.50875811474440047
-0.0024841687500000002,0.45254073968450531
-0.00248353875,-0.11752782282904817
-0.0024829087500000003,-0.29874179095210568
-0.0024822787500000001,0.52308305997384774
-0.00248164875,-0.42201499178971502
-0.0024810187500000002,0.049235788638635293
-0.0024803887500000001,0.35048773275327688
-0.0024797587500000003,-0.53464924917281254
-0.0024791287500000002,0.37767218913958911
-0.00247849875,0.014350334020649324
-0.0024778687500000003,-0.40321328701704595
-0.0024772387500000001,0.53232759650571682
-0.00247660875,-0.3330465796779844
-0.0024759787500000002,-0.085510948330238853
-0.0024753487500000001,0.44400082696741344
-0.0024747187500000004,-0.53043135715796974
-0.0024740887500000002,0.27504506794599121
-0.00247345875,0.14879652150558123
-0.0024728287500000003,-0.48577674407054217
-0.0024721987500000001,0.51042128802910902
-0.00247156875,-0.21970031269413381
-0.0024709387500000003,-0.21746971087635911
-0.0024703087500000001,0.5117882695225342
-0.0024696787500000004,-0.49084878112583863
-0.0024690487500000002,0.15162334303840058
-0.00246841875,0.27783061533278586
-0.0024677887500000003,-0.53805627357801367
-0.0024671587500000002,0.45452928743929183
-0.00246652875,-0.089509893349426384
-0.0024658987500000003,-0.33990430621121315
-0.0024652687500000001,0.549742001860278
-0.0024646387499999999,-0.41892042325450052
-0.0024640087500000002,0.016516718189957702
-0.00246337875,0.39036608501842973
-0.0024627487500000003,-0.55807955599457515
-0.0024621187500000002,0.36758184046040732
-0.00246148875,0.0495926713186906
-0.0024608587500000003,-0.44218936826898436
-0.0024602287500000001,0.55127746982693282
-0.0024595987499999999,-0.31834609942688208
-0.0024589687500000002,-0.12342846879929463
-0.0024583387500000001,0.48141422275285162
-0.0024577087500000003,-0.54311834735727127
-0.0024570787500000002,0.25461492214128478
-0.00245644875,0.18822860606932312
-0.0024558187500000003,-0.52057996808757634
-0.0024551887500000001,0.51859264863459409
-0.00245455875,-0.19504669751303141
-0.0024539287500000002,-0.25836044487535587
-0.0024532987500000001,0.54440050254589367
-0.0024526687500000003,-0.49258077360155117
-0.0024520387500000002,0.12402177564918514
-0.00245140875,0.31847666488674681
-0.0024507787500000003,-0.56682804719184121
-0.0024501487500000001,0.45162098608852996
-0.00244951875,-0.056628080141329522
-0.0024488887500000002,-0.38164011809650156
-0.0024482587500000001,0.57210354673399022
-0.0024476287500000003,-0.40988827775272296
-0.0024469987500000002,-0.017345570393906051
-0.00244636875,0.43115884518918912
-0.0024457387500000003,-0.57710997860079283
-0.0024451087500000001,0.35522267167825833
-0.00244447875,0.088777337952434199
-0.0024438487500000002,-0.48106070009855101
-0.0024432187500000001,0.56654272172856568
-0.0024425887500000003,-0.29908105319039202
-0.0024419587500000002,-0.1635396986684591
-0.00244132875,0.51763384192882467
-0.0024406987500000003,-0.55290672404472918
-0.0024400687500000001,0.23139637462758528
-0.00243943875,0.22990995773792006
-0.0024388087500000002,-0.55350881524831763
-0.0024381787500000001,0.52279773084251335
-0.0024375487500000004,-0.16723113266591949
-0.0024369187500000002,-0.30099587994348248
-0.00243628875,0.57221635099965817
-0.0024356587500000003,-0.49144144124536837
-0.0024350287500000001,0.092300465892123734
-0.00243439875,0.36047013582077542
-0.0024337687500000003,-0.59202474610366118
-0.0024331387500000001,0.44284899228029978
-0.0024325087499999999,-0.022266017110417969
-0.0024318787500000002,-0.42155933652093036
-0.00243124875,0.59316441871296999
-0.0024306187500000003,-0.39711371635429515
-0.0024299887500000002,-0.057641976408236421
-0.00242935875,0.46916145172251505
-0.0024287287500000003,-0.59466727348388204
-0.0024280987500000001,0.33452268615305664
-0.0024274687499999999,0.12686317757101276
-0.0024268387500000002,-0.51888118083398127
-0.00242620875,0.5757658169312676
-0.0024255787500000003,-0.27598529850543529
-0.0024249487500000002,-0.20510864570864148
-0.00242431875,0.55109274308693823
-0.0024236887500000003,-0.55675948070101988
-0.0024230587500000001,0.20381238097348928
-0.0024224287499999999,0.27160781161735426
-0.0024217987500000002,-0.58398161942277993
-0.0024211687500000001,0.52174074496698553
-0.0024205387500000003,-0.13635787741762395
-0.0024199087500000002,-0.34367964145198249
-0.00241927875,0.59921877158339842
-0.0024186487500000003,-0.48430960195504608
-0.0024180187500000001,0.056490923479037711
-0.00241738875,0.4006891394402109
-0.0024167587500000002,-0.6152645806501732
-0.0024161287500000001,0.43283196525756679
-0.0024154987500000003,0.01598195224556509
-0.0024148687500000002,-0.46281191525755683
-0.00241423875,0.61013713279028248
-0.0024136087500000003,-0.37978858859111564
-0.0024129787500000001,-0.097244898285362841
-0.00241234875,0.50707214696216618
-0.0024117187500000002,-0.60549942085631692
-0.0024110887500000001,0.31420302108878467
-0.0024104587500000003,0.16920440005373696
-0.0024098287500000002,-0.55407812663792622
-0.00240919875,0.58160565228793981
-0.0024085687500000003,-0.25018071757690108
-0.0024079387500000001,-0.24853256625042702
-0.00240730875,0.58138809025372462
-0.0024066787500000002,-0.55840612848484017
-0.0024060487500000001,0.17273228459983853
-0.0024054187500000004,0.31534706318547379
-0.0024047887500000002,-0.61094023362643868
-0.00240415875,0.51494120216815065
-0.0024035287500000003,-0.10194264632189098
-0.0024028987500000001,-0.38471574695242372
-0.00240226875,0.62195771061427507
-0.0024016387500000002,-0.47434504440742087
-0.0024010087500000001,0.018229033636344937
-0.0024003787500000004,0.44233361051619946
-0.0023997487500000002,-0.62941789852952323
-0.00239911875,0.41693596952063877
-0.0023984887500000003,0.05692601679311482
-0.0023978587500000001,-0.4995240122439526
-0.00239722875,0.62126747420239536
-0.0023965987500000003,-0.35926244572072441
-0.0023959687500000001,-0.14014213752649765
-0.0023953387499999999,0.54212148366262225
-0.0023947087500000002,-0.61127523592844768
-0.00239407875,0.28699191633348742
-0.0023934487500000003,0.21188815493501534
-0.0023928187500000002,-0.58541917673041621
-0.00239218875,0.58314676352277228
-0.0023915587500000003,-0.21914379034784801
-0.0023909287500000001,-0.2909498643202777
-0.0023902987499999999,0.61130076792119947
-0.0023896687500000002,-0.55269159371089827
-0.0023890387500000001,0.13759613343849761
-0.0023884087500000003,0.35609343361153578
-0.0023877787500000002,-0.63377244027463608
-0.00238714875,0.50525952492088388
-0.0023865187500000003,-0.064295794015190519
-0.0023858887500000001,-0.42607486444540649
-0.0023852587499999999,0.63998095645281849
-0.0023846287500000002,-0.45941734341493068
-0.0023839987500000001,-0.022222772148585371
-0.0023833687500000003,0.47927119846625521
-0.0023827387500000002,-0.64551050608559324
-0.00238210875,0.3939997571645325
-0.0023814787500000003,0.096978750818324619
-0.0023808487500000001,-0.53564118451319276
-0.00238021875,0.63043501479009501
-0.0023795887500000002,-0.33221663334442758
-0.0023789587500000001,-0.1816689817788617
-0.0023783287500000003,0.57507753299027398
-0.0023776987500000002,-0.61309463306051659
-0.00237706875,0.25791312220877582
-0.0023764387500000003,0.25473460637267148
-0.0023758087500000001,-0.61518196461195407
-0.00237517875,0.57837030382635435
-0.0023745487500000002,-0.18621062980672701
-0.0023739187500000001,-0.33315226993991487
-0.0023732887500000003,0.63393193729301489
-0.0023726587500000002,-0.54343394088315145
-0.00237202875,0.10009447686577015
-0.0023713987500000003,0.39619819122405331
-0.0023707687500000001,-0.65349906363445953
-0.00237013875,0.48962825825534489
-0.0023695087500000002,-0.023585925340008161
-0.0023688787500000001,-0.46556409706438046
-0.0023682487500000004,0.65432605909693087
-0.0023676187500000002,-0.43797279608133249
-0.00236698875,-0.062464458467554683
-0.0023663587500000003,0.51636092724483229
-0.0023657287500000001,-0.6526753536068628
-0.00236509875,0.36836400569532396
-0.0023644687500000003,0.14042669428862486
-0.0023638387500000001,-0.56943136605350242
-0.0023632087499999999,0.63075868058474027
-0.0023625787500000002,-0.30278499351678528
-0.00236194875,-0.22489502990991775
-0.0023613187500000003,0.60390493063463191
-0.0023606887500000001,-0.61075248727908271
-0.00236005875,0.22412588438237138
-0.0023594287500000003,0.29867142411299585
-0.0023587987500000001,-0.63829103025818079
-0.0023581687499999999,0.57086182490644644
-0.0023575387500000002,-0.14698890548417343
-0.00235690875,-0.37431751377447048
-0.0023562787500000003,0.65297792692702594
-0.0023556487500000002,-0.52952514084450863
-0.00235501875,0.060616203797418743
-0.0023543887500000003,0.43656564309999235
-0.0023537587500000001,-0.66849599838883922
-0.0023531287499999999,0.46909112815265702
-0.0023524987500000002,0.016410401782753027
-0.0023518687500000001,-0.50277452289565017
-0.0023512387500000003,0.66292369835643106
-0.0023506087500000002,-0.41302365539948288
-0.00234997875,-0.10556900327219954
-0.0023493487500000003,0.55017935962072206
-0.0023487187500000001,-0.6556172892762091
-0.00234808875,0.33913340520075547
-0.0023474587500000002,0.18279330271495386
-0.0023468287500000001,-0.60169479375817514
-0.0023461987500000003,0.62880773128582734
-0.0023455687500000002,-0.27099666768386727
-0.00234493875,-0.26926190476356671
-0.0023443087500000003,0.62889093647061922
-0.0023436787500000001,-0.60195077423982535
-0.00234304875,0.18636338313534204
-0.0023424187500000002,0.33897358730719779
-0.0023417887500000001,-0.65929413435361284
-0.0023411587500000003,0.55622680483201992
-0.0023405287500000002,-0.10931078637722202
-0.00233989875,-0.4149709785055507
-0.0023392687500000003,0.66726051252336438
-0.0023386387500000001,-0.50924558265862307
-0.00233800875,0.018591281440463184
-0.0023373787500000002,0.47307798653291983
-0.0023367487500000001,-0.67829997579455992
-0.0023361187500000003,0.44554846687797933
-0.0023354887500000002,0.060588699192146669
-0.00233485875,-0.53551319052818203
-0.0023342287500000003,0.66616902004598266
-0.0023335987500000001,-0.38404955236013821
-0.00233296875,-0.14950100593400237
-0.0023323387500000002,0.5781932081358454
-0.0023317087500000001,-0.65563330579766088
-0.0023310787500000004,0.30614293815283644
-0.0023304487500000002,0.22621790348542334
-0.00232981875,-0.62523523673001236
-0.0023291887500000003,0.62193193467181829
-0.0023285587500000001,-0.23377226833809628
-0.00232792875,-0.30856465394163107
-0.0023272987500000003,0.65083340089861685
-0.0023266687500000001,-0.58879357667264554
-0.0023260387499999999,0.14634628974087116
-0.0023254087500000002,0.37889416353229499
-0.00232477875,-0.67552688216539813
-0.0023241487500000003,0.53645192061401015
-0.0023235187500000001,-0.067807389804520835
-0.00232288875,-0.45215805706185108
-0.0023222587500000003,0.67824382781907122
-0.0023216287500000001,-0.48702209446997841
-0.0023209987499999999,-0.022538068228112169
-0.0023203687500000002,0.51032488893418138
-0.00231973875,-0.68175315633935318
-0.0023191087500000003,0.41734385274344665
-0.0023184787500000002,0.10358374241535338
-0.00231784875,-0.56790554936504034
-0.0023172187500000003,0.66478394612266289
-0.0023165887500000001,-0.35272468562130216
-0.0023159587499999999,-0.19337710624559279
-0.0023153287500000002,0.60573596016926079
-0.0023146987500000001,-0.64690086836787508
-0.0023140687500000003,0.2707096463917591
-0.0023134387500000002,0.26761480172151592
-0.00231280875,-0.64668747689416917
-0.0023121787500000003,0.60853835551857061
-0.0023115487500000001,-0.19515727128686242
-0.00231091875,-0.35064524920684242
-0.0023102887500000002,0.66658810662490497
-0.0023096587500000001,-0.57071713376213029
-0.0023090287500000003,0.10550194473636143
-0.0023083987500000002,0.41752513002150821
-0.00230776875,-0.68499542927270152
-0.0023071387500000003,0.51333110344561239
-0.0023065087500000001,-0.025707000507574511
-0.00230587875,-0.48757888645016978
-0.0023052487500000002,0.6838714605848949
-0.0023046187500000001,-0.45716701898503226
-0.0023039887500000003,-0.065316667997081745
-0.0023033587500000002,0.53967911365062549
-0.00230272875,-0.68084734386760848
-0.0023020987500000003,0.38639625618783413
-0.0023014687500000001,0.14581322825079329
-0.00230083875,-0.59410124251484775
-0.0023002087500000002,0.65772872811635374
-0.0022995787500000001,-0.31584207306687978
-0.0022989487500000003,-0.2345595109524839
-0.0022983187500000002,0.62841837222193619
-0.00229768875,-0.63487612936602844
-0.0022970587500000003,0.23291991201024587
-0.0022964287500000001,0.30834784144502297
-0.00229579875,-0.66421986490512486
-0.0022951687500000002,0.59074633355516526
-0.0022945387500000001,-0.15450112519844675
-0.0022939087499999999,-0.38934622159465626
-0.0022932787500000002,0.67686880531120186
-0.00229264875,-0.54886787311465202
-0.0022920187500000003,0.06274250869320197
-0.0022913887500000001,0.45288827121917297
-0.00229075875,-0.69082741370391099
-0.0022901287500000003,0.48544515678929667
-0.0022894987500000001,0.017952658129184063
-0.0022888687499999999,-0.5182225811766259
-0.0022882387500000002,0.68297459200323596
-0.00228760875,-0.42624332371629975
-0.0022869787500000003,-0.10925123128833808
-0.0022863487500000002,0.56683730905495366
-0.00228571875,-0.67586625228176433
-0.0022850887500000003,0.35001440944278134
-0.0022844587500000001,0.18853275190812777
-0.0022838287499999999,-0.61672297092387651
-0.0022831987500000002,0.6459016972075976
